{
  "id": "39333",
  "url":"https://ticket.urbtix.hk/mobile/eventDetail/41028",
  "key":"BTSWO0319",
  "buy":false,
  "last":false,
  "quantity":4,
  "start":1544493600,
  "wait":false,
  "timeout":1000
}
